<svg xmlns="http://www.w3.org/2000/svg" width="16.501" height="16.501" viewBox="0 0 16.501 16.501">
  <g id="Icon_feather-x-circle" data-name="Icon feather-x-circle" transform="translate(0.75 0.75)">
    <path id="Tracé_353" data-name="Tracé 353" d="M18,10.5A7.5,7.5,0,1,1,10.5,3,7.5,7.5,0,0,1,18,10.5Z" transform="translate(-3 -3)" fill="none" stroke="#464a53" stroke-linecap="round" stroke-linejoin="round" stroke-width="1.5"/>
    <path id="Tracé_354" data-name="Tracé 354" d="M18,13.5,13.5,18" transform="translate(-8.25 -8.25)" fill="none" stroke="#464a53" stroke-linecap="round" stroke-linejoin="round" stroke-width="1.5"/>
    <path id="Tracé_355" data-name="Tracé 355" d="M13.5,13.5,18,18" transform="translate(-8.25 -8.25)" fill="none" stroke="#464a53" stroke-linecap="round" stroke-linejoin="round" stroke-width="1.5"/>
  </g>
</svg>
