<?xml version="1.0" encoding="utf-8"?>
<!-- Generator: Adobe Illustrator 25.2.0, SVG Export Plug-In . SVG Version: 6.00 Build 0)  -->
<svg version="1.1" id="Calque_1" xmlns="http://www.w3.org/2000/svg" xmlns:xlink="http://www.w3.org/1999/xlink" x="0px" y="0px"
	 viewBox="0 0 22 22" style="enable-background:new 0 0 22 22;" xml:space="preserve">
<style type="text/css">
	.st0{fill:#EFE0EE;}
</style>
<path id="Tracé_1183" class="st0" d="M9,8h4V5h3l-5-5L6,5h3V8z M8,9H5V6l-5,5l5,5v-3h3V9z M22,11l-5-5v3h-3v4h3v3L22,11z M13,14H9
	v3H6l5,5l5-5h-3V14z"/>
</svg>
