<svg xmlns="http://www.w3.org/2000/svg" width="15.94" height="22.893" viewBox="0 0 15.94 22.893">
  <path id="Tracé_1164" data-name="Tracé 1164" d="M-2125.385,2794.4h-14.737a.6.6,0,0,0-.6.6v22.292h6v-5.818h3.949v5.818h6V2795A.6.6,0,0,0-2125.385,2794.4Zm-10.3,19.781h-2.707v-2.707h2.707Zm0-4.715h-2.707v-2.707h2.707Zm0-4.624h-2.707v-2.707h2.707Zm0-4.624h-2.707v-2.707h2.707Zm4.25,9.248h-2.707v-2.707h2.707Zm0-4.624h-2.707v-2.707h2.707Zm0-4.624h-2.707v-2.707h2.707Zm4.363,13.963h-2.707v-2.707h2.707Zm0-4.715h-2.707v-2.707h2.707Zm0-4.624h-2.707v-2.707h2.707Zm0-4.624h-2.707v-2.707h2.707Z" transform="translate(2140.723 -2794.4)" fill="#a1006b"/>
</svg>
