<svg xmlns="http://www.w3.org/2000/svg" width="13.435" height="13.44" viewBox="0 0 13.435 13.44">
  <path id="Icon" d="M386.467,55.034,383.2,51.768a5.734,5.734,0,1,0-.566.566L385.9,55.6a.4.4,0,0,0,.283.119.393.393,0,0,0,.283-.119A.4.4,0,0,0,386.467,55.034ZM373.95,48.01a4.925,4.925,0,1,1,4.925,4.929A4.931,4.931,0,0,1,373.95,48.01Z" transform="translate(-373.148 -42.279)" fill="#909090"/>
</svg>
