<?xml version="1.0" encoding="utf-8"?>
<!-- Generator: Adobe Illustrator 25.2.3, SVG Export Plug-In . SVG Version: 6.00 Build 0)  -->
<svg version="1.1" id="Calque_1" xmlns="http://www.w3.org/2000/svg" xmlns:xlink="http://www.w3.org/1999/xlink" x="0px" y="0px"
	 viewBox="0 0 30 30" style="enable-background:new 0 0 30 30;" xml:space="preserve">
<style type="text/css">
	.st0{fill:#A1006B;}
	.st1{fill:none;stroke:#FFFFFF;stroke-width:3;stroke-linecap:round;stroke-linejoin:round;}
</style>
<g id="Groupe_1325" transform="translate(-1526 -337)">
	<circle id="Ellipse_26" class="st0" cx="1541" cy="352" r="15"/>
	<path id="Icon_feather-check" class="st1" d="M1548.6,347.9l-9.5,9.5l-4.3-4.3"/>
</g>
</svg>
